<svg xmlns="http://www.w3.org/2000/svg" width="23.962" height="18" viewBox="0 0 23.962 18">
  <g id="Group_601" data-name="Group 601" transform="translate(-0.032 -3)">
    <path id="Path_51" data-name="Path 51" d="M10,19a2,2,0,1,1,2,2A2.006,2.006,0,0,1,10,19Zm8.36-4.24a1.491,1.491,0,0,0,0-2.12,9.011,9.011,0,0,0-12.73,0,1.5,1.5,0,0,0,2.12,2.12,6.011,6.011,0,0,1,8.49,0,1.5,1.5,0,0,0,2.12,0Zm5.17-4.67a1.5,1.5,0,0,0,.05-2.12c-.09-.09-.18-.19-.27-.28A15.994,15.994,0,0,0,.69,7.68c-.09.09-.18.19-.27.28a1.5,1.5,0,0,0,2.17,2.07l.22-.23a13,13,0,0,1,18.39,0l.22.22a1.476,1.476,0,0,0,1.08.46,1.537,1.537,0,0,0,1.04-.41Z" fill="#fff"/>
  </g>
</svg>
