<svg xmlns="http://www.w3.org/2000/svg" xmlns:xlink="http://www.w3.org/1999/xlink" width="184.463" height="181.803" viewBox="0 0 184.463 181.803">
  <defs>
    <linearGradient id="linear-gradient" x1="0.5" x2="0.5" y2="1" gradientUnits="objectBoundingBox">
      <stop offset="0" stop-color="#fff"/>
      <stop offset="1" stop-color="gray" stop-opacity="0.412"/>
    </linearGradient>
  </defs>
  <g id="Group_31" data-name="Group 31" transform="translate(-1736.843 -821.235)">
    <path id="Union_5" data-name="Union 5" d="M20979.928,19335.469c-.6-.109-.3-1.021-.115-1.523a6.511,6.511,0,0,1,2.977-3.209,10.659,10.659,0,0,0,4.133-3.873c.447-.779,1.564-1.086,1.623-2.219.01-.205.494-.58.711-.227.621,1.018,1.676.49,2.572.785-.617,1.719-.859,3.488-2.578,4.375.332,1.58-1.2,1.338-1.881,1.928a1.893,1.893,0,0,0-.475.906,6.864,6.864,0,0,1-2.814,3.357,2.3,2.3,0,0,1-1.289.377A16.747,16.747,0,0,1,20979.928,19335.469Zm-34.25-5.322a4.386,4.386,0,0,1-1.971-2.355,4.657,4.657,0,0,0-1.012-2.234.635.635,0,0,1-.18-.717c.18-.375.512-.3.791-.205a6.5,6.5,0,0,0,4.342-.064c.906-.316.748.375.707.859.363,2.023-1.213,3.178-2.023,4.674a.324.324,0,0,1-.285.209A.674.674,0,0,1,20945.678,19330.146Zm47.889-4.416c-.652-.416-.984-.98-.463-1.76.637-.939.389-1.613-.639-2.078-.658-.295-1.033-.684-.279-1.332a2,2,0,0,0,.285-2.74c-.869-1.455-1.344-3.131-2.482-4.428a1.117,1.117,0,0,1-.211-.584.613.613,0,0,1,.422-.158,6.431,6.431,0,0,1,2.672,1.8c.121.131.09.406.115.543-.094.332-.178.58-.236.832-.18.816-.385,1.654.943.891.453-.264.664-.021.881.412.795,1.6,1.611,1.9,3.377,1.27.859-.307,1.2-.031,1.008.822-.1.459-.232,1.127-.555,1.285-1.977.955-2.34,3.141-3.662,4.58-.242.264-.4.787-.785.787A.728.728,0,0,1,20993.566,19325.73Zm-49.939-5.672c.133-1.258-.758-1.223-1.26-.721-1.316,1.316-2.6.859-3.994.311-.934-.363-1.949-.527-2.846-.949-.748-.357-1.66-.807-.76-1.955a.888.888,0,0,0-.416-1.5c-.711-.184-.99-1.145-1.959-.865-.5.143-.285-.457-.275-.773.021-.48.068-1.107-.426-1.266-.58-.184-.58.49-.754.859-.152.316-.285.67-.732.617-.154-.016-.381-.09-.428-.207-.18-.4.379-.447.412-.7.184-1.332,1.791-2.219,1.074-4.174-.553,1.9-2.293,2.414-3.072,3.816-.184.332-.447.574-.854.438a.683.683,0,0,1-.406-.865c.248-1.148-.354-1.686-1.3-2.092-.328-.137-1.271-.242-.375-.949-.633-.426-.875-1.449-1.877-1.307a2.4,2.4,0,0,1-1.812-.527,4.78,4.78,0,0,0-4.373-.373c-1.7.521-3.295,1.471-5.182,1.006-.668-.168-.6.686-1.064.775a4.864,4.864,0,0,0-3.752,2.418c-.2.363-.7.359-1.191.359a4.379,4.379,0,0,0-.543.021,15.461,15.461,0,0,1-3-.238c-.76-.068-1.523-.553-2.1.729-.258.568-1.791.742-2.672,1.295a2.082,2.082,0,0,1-2.725-.5,2,2,0,0,0-.689-.359c-1.65-.574-2.035-.479-.275-2.043a1.3,1.3,0,0,0,.5-1.393,10.829,10.829,0,0,0-1.238-3.83c-.521-.955-.211-2.119-.785-3.021a17.578,17.578,0,0,1-1.555-3.836c-.143-.422-.285-.674.283-.9.686-.258.934-.674.117-1.17a2.111,2.111,0,0,1-.838-2.2c.09-1.111.773-2.123.543-3.3-.021-.125.152-.416.246-.426,1.9-.164,2.9-2.2,4.865-2.277s3.541-1.4,5.455-1.75a4.358,4.358,0,0,0,3.5-4,2.37,2.37,0,0,1,.564-1.154c.379-.494.664-.475.928.1.115.258.174.7.547.605a1,1,0,0,0,.686-.875c.031-.2-.168-.6-.068-.564,1.443.518.953-1.49,1.977-1.49.068,0,.205-.117.2-.143-.484-1.281.555-1.2,1.26-1.635.67-.416,1.129-1.285,2.051-.906a2.324,2.324,0,0,1,1.67,2.5c.623-.633,1.15-1.127,2.057-.686.4.2.891-.02.553-.574-.48-.795-.127-1.133.516-1.543.707-.443.438-1.533,1.318-2.014a3.424,3.424,0,0,1,1.465-.643c.643-.053,1.418.09,1.744-.828.17-.49.707-.215,1.049-.137,1.518.354,2.957,1.064,4.6.764a1.158,1.158,0,0,1,1.2.664c.242.574-.422.639-.705.918-.723.705-.707,1.744-1.076,2.6-.537,1.279.807,1.512,1.555,1.992,1.4.891,2.8,1.785,4.242,2.592,2.109,1.17,2.82.865,3.369-1.033a12.822,12.822,0,0,0,.537-5.543c-.027-.17-.143-.459-.09-.49,1.4-.865.391-2.73,1.676-3.773a15.631,15.631,0,0,1,1.828,4.236c.27.865.143,2.039,1.656,1.809.379-.059.531.438.627.754.574,1.865,1.68,3.563,1.766,5.586.035.854.7,1.275,1.307,1.682.689.457,1.434.832,2.154,1.238a3.747,3.747,0,0,1,1.967,2.914c.115.885.453,1.412,1.369,1.4a.974.974,0,0,1,1.107.863,3.1,3.1,0,0,0,1.508,1.961,4.447,4.447,0,0,1,2.012,3.91,6.173,6.173,0,0,0,.611,3.3c.57,1.092.223,2.23.049,3.342a15.105,15.105,0,0,1-2.445,6.256c-1.355,2.023-2.967,4.031-3.2,6.662a1.728,1.728,0,0,1-1.16,1.48c-1.9.637-3.594,1.8-5.592,2.191a3.027,3.027,0,0,1-.527.092C20943.729,19320.625,20943.578,19320.51,20943.627,19320.059Zm1.809-52.752c-1.2-2.125-2.393-2.4-4.7-1.154-.564.3-1.285.178-1.8.637.053.105.063.205.121.258.332.307,1.176.248,1.018.807s-.9.338-1.4.338a5.025,5.025,0,0,1-2.393-.617c-1.2-.664-2.361-1.27-3.811-.727a.864.864,0,0,1-1.213-.67,1,1,0,0,1,.744-1.207,3.013,3.013,0,0,0,1.648-1c-1.555.059-1.918-1.307-2.818-1.949a19.267,19.267,0,0,0-4.08-1.729c-.479-.2-1.053-.105-1-1.023.043-.705-.764-.326-1.158-.273-1.939.264-1.936.285-2.6-1.639.68-.412,1.57.01,2.3-.711-2.012.4-3.1-1.17-4.652-1.971a4.962,4.962,0,0,1,2.229-.965,2.348,2.348,0,0,1,2.936,1.912,3.375,3.375,0,0,0,1.418,2.262c.7.447,1.406.447,1.813-.3.617-1.148,1.729-1.26,2.752-1.729a2.976,2.976,0,0,1,2.992.27c2.65,1.475,5.734,1.834,8.416,3.24a6.614,6.614,0,0,1,2.5,1.809,4.592,4.592,0,0,0,2.219,1.574c.332.111.711.217.654.68-.049.4-.381.422-.7.422-.955,0-.838.4-.316.891.863.813,1.5,1.824,2.271,2.672.615.676,1.723.986,2.355,1.824.205.273.559.426.633.938-.25.023-.5.035-.754.035A6.313,6.313,0,0,1,20945.436,19267.307Zm-32.4-.5c-1.687,1.7-4.012,1.412-5.365,3.221C20907.586,19268.381,20909.9,19267.053,20913.035,19266.8Zm-12.854,1.8c1.316-.752,1.707.2,2.381,1.139A4.4,4.4,0,0,1,20900.182,19268.6Zm-4.27-.906c-.174-.242-.375-.479-.711-.422-.1.018-.064-.115,0-.242s.18-.252.254-.242a7.275,7.275,0,0,0,1.855-.094,8.579,8.579,0,0,1,1.645-.105c.242.02.553.063.563.416.006.248-.189.379-.41.438-.754.189-1.508.363-2.578.621a.3.3,0,0,1-.172.064C20896.188,19268.129,20896.063,19267.91,20895.912,19267.7Zm-2.836-.7c-.016-.357.285-.479.539-.562a.65.65,0,0,1,.605.615c.006.359-.354.49-.633.533a.546.546,0,0,1-.078.006C20893.188,19267.586,20893.082,19267.279,20893.076,19266.994Zm8.443-.031c.643-.668,1.207-.389,1.754-.105a1.671,1.671,0,0,0,1.061.295,8.7,8.7,0,0,0,.795-.379c.242-.152.412-.469.76-.338a.361.361,0,0,1,.2.275c-.053.426-.449.475-.754.568a6.131,6.131,0,0,1-1,.168,6.571,6.571,0,0,1-1.062.105A2.682,2.682,0,0,1,20901.52,19266.963Zm-10.2.049c-2.225-.518-4.627.2-6.746-1.1a2.776,2.776,0,0,0-2.666-.154c-.906.359-2.225-.311-3.047-.99a8.349,8.349,0,0,0-1.359-.742c.344-1.687,1.691-1.145,2.566-1.029a5.876,5.876,0,0,1,2.477,1.033c.924.627,2.135,1.129,3.162-.068a.736.736,0,0,1,.949-.162,5.306,5.306,0,0,0,2.135.574c.084,0,.242-.006.248.025.447,1.477,1.645,1.2,2.734,1.191.242-.006.475.168.316.406-.217.326-.111,1.037-.611,1.037A.7.7,0,0,1,20891.316,19267.012Zm58.719-3.863a.756.756,0,0,1-.727-.648c-.021-.559.516-.385.775-.338,1.58.285,2.709-.943,4.125-1.186a.324.324,0,0,0,.26-.49c-.127-.322-.406-.723.289-.648.527.059.7.316.6.906-.248,1.492-1.518,1.744-2.588,2.2a5.02,5.02,0,0,1-1.406.217c-.355,0-.623.008-.854.008C20950.336,19263.166,20950.186,19263.162,20950.035,19263.148Zm-74.682-.85c-.891-1.539-2.678-2.055-3.789-3.352a11.044,11.044,0,0,1-2.594-3.879,5.32,5.32,0,0,0-1.422-1.859,13.68,13.68,0,0,1-2.039-3.088,7.7,7.7,0,0,0-2.34-2.953,43.561,43.561,0,0,0-3.785-2.9,2.306,2.306,0,0,1,2.34-.437c2.867.711,4.775,2.623,6.492,4.826.133.174.275.459.434.471,1.732.125,2.324,1.654,3.336,2.66.063.059.105.189.168.2,1.313.111,1.8.828,1.561,2.1,1.412.342,1.85,1.428,2.086,2.688.006.043.227.053.344.059,1.295.025,1.512.885,1.486,1.928-.016.48-.064.955-.068,1.434-.033,2.082-.027,2.082-1.871,2.219a.275.275,0,0,1-.041,0C20875.541,19262.406,20875.391,19262.369,20875.354,19262.3Zm25.617-.379c-.584-.168-.969-.521-.605-1.275.443-.912.791-1.877-.727-2.182-.412-.084-.449-.375-.264-.7a28.858,28.858,0,0,0,2.033-5.318,4.541,4.541,0,0,1,.955-1.539,1.24,1.24,0,0,1,1.986-.273c1.086.811,3.057.816,5.148.227a2.073,2.073,0,0,1-2.4,1.381,15.188,15.188,0,0,1-3.234-.285c-1.105-.289-1.807.33-1.924,1.561.232.316.463.633.689.953.4.559.738,1.238,1.328.1.279-.553.748-.5,1.223-.443a1.788,1.788,0,0,0,.834-.025,3.866,3.866,0,0,1-1.777,1.559c-.643.365-.652.607-.047.965.637.375,1.1.8.918,1.676-.154.707.736.906.932,1.6-.637.146-1.033.68-1.855,1.313.438-1.771-1.8-2.219-1.186-3.91-.627.137-.9.547-.764.969.332,1-.258,1.881-.217,2.83a.751.751,0,0,1-.754.865A1.077,1.077,0,0,1,20900.971,19261.92Zm.965-8.4c-.031-.066-.064-.133-.1-.2A.336.336,0,0,0,20901.936,19253.516Zm-9.533,5.811c-.09-.727-.3-1.211-1.207-1.174a3.786,3.786,0,0,1-.648-.049,2.063,2.063,0,0,0-1.248.105c-.418.2-1.523,1.049-1.334-.584.037-.322-.3-.227-.5-.186-.336.074-.664.217-1.006.26-1.523.174-1.7.02-1.756-1.5-.025-.738.1-1.551-.969-1.7-.105-.016-.285-.158-.279-.236.105-1.424-.875-2.883.174-4.291.279-.379.537-.432.854-.184a3.745,3.745,0,0,0,1.322.531c.527.154.828.09.8-.578s.311-1.393.947-1.371c1.465.047,2.113-1.229,3.227-1.719a1.009,1.009,0,0,0,.605-.811,1.022,1.022,0,0,1,1.18-.959,1.432,1.432,0,0,0,1.576-1.1c.295-1.148,1.908-1.08,2.092-2.352.012-.094,1.092.2,1.17.7.148.99.785,1.123,1.555,1.234.385.057.822.178.76.711-.074.605-.518.447-.906.395a2.783,2.783,0,0,0-.506.037c.152.816-.791,1-.949,1.66a2.768,2.768,0,0,0,.152,1.871,7.529,7.529,0,0,0,2.119,3.289c-2.16-.006-2.367.242-2.467,2.4-.037.844-.859,1.023-1.4,1.418-.369.279-1.006.406-.264.975.316.248.043.453-.115.654a1.838,1.838,0,0,0-.332.969c-.053.453.4,1.07-.127,1.318a8.454,8.454,0,0,1-2.139.516.08.08,0,0,1-.021,0A.5.5,0,0,1,20892.4,19259.326Zm20.068-.062a.905.905,0,0,1-.98-.828c-.084-.615.438-.664.85-.721.664-.1.779.438.854.891.082.5-.258.658-.7.658Zm6.33-.459c-1.412-.3-2.92.006-4.6-.531,1.691-1.117,3.094-1.312,4.564-.443.215.127.475.254.463.57a.422.422,0,0,1-.379.41A.181.181,0,0,1,20918.8,19258.8Zm-45.16-8.543a15.8,15.8,0,0,1-2.551-1.559c-1.186-1.219-2.629-2.52-2.355-4.475a3.12,3.12,0,0,0-1-2.926,14.708,14.708,0,0,1-1.2-1.559c-.258-.338-.463-.807-1-.713-.6.1-.543-.23-.469-.611a18.629,18.629,0,0,1,.473-2.439c1.061-3.252-.473-6.262-.816-9.375-.121-1.049-1.207-1.539-1.934-2.2-.3-.273-.648.037-.906.289-.332.344-.654.707-1.008,1.033-.395.363-.826.676-1.406.385a1.237,1.237,0,0,1-.832-1.223c.227-1.887-.586-3.482-1.25-5.143-.295-.729-.928-1.023-1.5-1.4-.586-.391-.875-.812-.168-1.281.953-.637.727-1.787,1.242-2.645,1.107-1.861,3.162-3.3,2.936-5.871a.987.987,0,0,1,.871-1.139c1.512-.137,3.072-.148,3.178-2.352,1.8,1.914,1.8,3.121.094,4.791a3.144,3.144,0,0,0-.711,3.047c.078.447.469.816.832.6,1.154-.707,1.518.242,1.84.9.764,1.545,2.439,1.982,3.568,3.088.643.633,1.559.021,1.449-1.037-.164-1.607.578-1.824,1.9-1.66,1.543.189,2.988-.59,4.531-.6.828-.006,1.418.01.943,1.1a1.27,1.27,0,0,0,.416,1.654c.98.576.275.934-.062,1.35-.158.2-.416.316-.6.5-1.285,1.361-1.285,1.641-.146,3.1a2.426,2.426,0,0,1,.484.912,3.679,3.679,0,0,0,1.8,2.309,17.7,17.7,0,0,1,1.824,1.49c.227.2.568.49.547.707-.184,1.924,1.16,3.662.639,5.617-.312,1.166-2.482,2.457-3.652,2.1-.465-.137-.732.037-.816.391a5.38,5.38,0,0,1-2.02,2.941c-.2.162-.348.479-.633.3-.248-.152-.162-.475-.109-.727.063-.3.178-.586.242-.881.1-.453.068-1.1-.322-1.176-2.086-.389-2.34-2.766-4.006-3.588-.42-.211-.736-.664-1.27-.58-.9.137-1.459-.059-1.391-1.117a.4.4,0,0,0-.391-.437.325.325,0,0,0-.357.3c-.223,1.867-1.492,3.342-1.887,5.139a2.956,2.956,0,0,0,.363,1.676,8.283,8.283,0,0,0,4.146,4.822c.76.4,1.234,1.324,1.961,1.9.791.633.691,1.582.639,2.436a3.7,3.7,0,0,0,.832,2.92c.264.289.658.689.236,1.148a.6.6,0,0,1-.436.234C20874.143,19250.729,20873.889,19250.428,20873.641,19250.262Zm34.787-7.705c-.373-.457-1.2-.943-.367-1.943.479-.58-.27-1.107-1.082-.986a4.905,4.905,0,0,1-2.076.971c.262-.891,1.1-1,1.51-1.518,0,0,0-.008,0-.012.373-.506.705-1.117,1.344-.236.316.432.621.283.938-.105.48-.6,1.266-.807,1.76-1.492.416-.58.959.043,1.123.518a11.142,11.142,0,0,1,.543,2.412c.063.639.248,1.6-1.039,1.049-.469-.193-.469.148-.4.5.1.463.813,1.09.158,1.338a2.474,2.474,0,0,1-.887.164A1.939,1.939,0,0,1,20908.428,19242.557Zm-74.076-.125c-.416-.242-.311-.664-.268-1.055a17.284,17.284,0,0,1,1.164-4.484c.363,1.471,1.676,2.371,2.119,3.752a1.646,1.646,0,0,1-.781,1.918,1.812,1.812,0,0,1-.945.262A2.561,2.561,0,0,1,20834.352,19242.432Zm-4.779-3.885c-.143-.164-.359-.316-.406-.506-.928-3.5-3.963-6.16-4.041-10a2.129,2.129,0,0,0-1.234-1.729,2.028,2.028,0,0,1-.912-1.623c-.146-1.344-.379-2.682-.621-4.016a3.066,3.066,0,0,1,.2-2.287,1.317,1.317,0,0,0-.033-1.369,2.032,2.032,0,0,1-.221-1.709c-1.049.7-1.412,2.094-2.9,2.225-1.7.148-1.98-1.518-3.33-2.035.723-.541,1.459-.258,1.992-.6.289-.18.689-.363.543-.785s-.5-.18-.77-.074a2.725,2.725,0,0,1-2.23-.422v-1.049a6.65,6.65,0,0,0,3.326-.484,1.3,1.3,0,0,0,.611-2.2c-.531-.648-.854-1.412-1.359-2.07a1.4,1.4,0,0,1-.105-1.6c.3-.562.754-.189,1.148-.162a2.592,2.592,0,0,0,2.266-.8c1.672-1.924,3.559-3.711,4.3-6.271a1.165,1.165,0,0,1,.717-.717c.438-.189.986-.316.918-.943-.064-.555-.564-.766-1.012-.924-.906-.32-1.186-1.1-1.471-1.881-.242-.686.01-1,.727-.969h.1a.925.925,0,0,1,.164.01c1.908.27,3.684.127,4.918-1.66a9.694,9.694,0,0,1,1.881,3.494c.131.453.369.779-.375.9s-.758.744-.627,1.34a4.166,4.166,0,0,0,2.219,2.787c.859.469,1.107,1.055.564,1.865-.68,1.023-.164,1.5.689,2.072,2.588,1.729,5.545,2.508,8.443,3.414a13.926,13.926,0,0,0,4.016.459c1.439.016.748-1.291,1.086-2.1.686.574,1.318.18,1.818-.248a2.185,2.185,0,0,1,2.566-.258c1.322.832,2.346.2,3.225-.447,1.486-1.107,2.947-2.045,4.965-1.713-.1.574-.174,1.275.854,1.359.453.043.512.369.238.764-.174.254-.307.57-.66.559-2.576-.072-3.082,1.613-3.182,3.689a2.147,2.147,0,0,1-.791,1.586,8.859,8.859,0,0,0-2.436,3.979c-.121.332-.152.729-.5.865-.48.189-.354-.363-.549-.543a1.543,1.543,0,0,0-1.559-.443c-1.629.555-3.373.422-5.012.908-.7.205-1.25.4-1.312,1.338a2.092,2.092,0,0,1-1.635,1.971,6.177,6.177,0,0,0-3.051,1.908,29.5,29.5,0,0,0-2.619,2.365,9.436,9.436,0,0,1-3.469,2.625,1.707,1.707,0,0,0-.869,2.188c.322,1.5-.105,2.9-.248,4.357a7.567,7.567,0,0,1-2.576,4.906,1.564,1.564,0,0,0-.264.449c-.416.85-.633,1.26-.924,1.26C20830.5,19239.549,20830.168,19239.207,20829.572,19238.547Zm67.516-.152c-.254-.3.158-.527.363-.717a14.664,14.664,0,0,0,2.35-2.592s0,0,0-.006a4.333,4.333,0,0,1,1.043-1.393,2.068,2.068,0,0,1-.7,2.008,6.16,6.16,0,0,1-2.2,2.473c-.182.15-.377.385-.584.385A.355.355,0,0,1,20897.088,19238.395Zm9.338-2.988c.2-.105.416-.279.586-.1a.749.749,0,0,1,.125.6,5.555,5.555,0,0,1-.758,2.029C20905.588,19236.949,20905.113,19236.123,20906.426,19235.406Zm2.725-2.178c.391-.652-.605-.795-.885-1.232l0,0s0,0,0,0c-.971-1.322-2.51-1.766-3.869-2.477a.636.636,0,0,0-.742.08c-1.086,1.064-.98.2-.955-.57.006-.084.033-.221-.01-.252-1.561-1.129-.969-2.562-.822-4.105.248-2.684.59-3.131,3.215-2.578.006.074.006.148.016.227a6.881,6.881,0,0,1-1.018,4.3c-.7,1.207.4,2.234,1.855,2.414.738.09,1.508.27,1.76,1.232a6.729,6.729,0,0,0,.828,1.477c.816.41,1.939.41,2.172,1.6.037.205.047.416.068.623-1.176.053-.754,1.117-1.176,2.023C20909.473,19234.869,20908.492,19234.32,20909.15,19233.229Zm-4.67,1.629c-.258-.283.027-.559.105-.832a.606.606,0,0,1,.766-.49.927.927,0,1,1,.084,1.412,1.179,1.179,0,0,1-.475.117A.633.633,0,0,1,20904.48,19234.857Zm-1.844-2.471c-.6-.074-.379-.66-.437-.912.006-.506.037-.848.559-.754.453.084.881.217.807.785-.064.479-.354.887-.826.887A.911.911,0,0,1,20902.637,19232.387Zm-21.217-11.721c-.4-.518-.012-.8.5-.875a12.344,12.344,0,0,1,3.383.041c.338.049.639.143.391.57a2.835,2.835,0,0,1-2.123,1.586A3.286,3.286,0,0,1,20881.42,19220.666Zm1.453-4.363c-.521-.059-.963-.254-1.475.078a1.43,1.43,0,0,1-1.707-.2c-.521-.4-.1-.879.025-1.316.332-1.154.027-1.641-1.18-1.74a10.826,10.826,0,0,0-3.516.307,8.189,8.189,0,0,1-2.2.273c-2.576-.053-2.576-.047-3,2.588-1-1.25-2.635-1.639-3.32-3.152a2.21,2.21,0,0,0-1.666-1.264c-.99-.232-.3-.986.117-1.3a3.821,3.821,0,0,0,1.348-2.414,3.486,3.486,0,0,0-1.6-3.957,14.208,14.208,0,0,1-2.967-2.088c-.232-.252-.676-.152-1,.031a1.43,1.43,0,0,1-1.477.121c-.506-.252-.906.037-1.3.354-.68.543-1.424,1.012-2.082,1.576-1.266,1.074-2.557.105-3.832.1-.252,0-.643-.23-.738-.131a2.81,2.81,0,0,1-2.555.627,5.561,5.561,0,0,0-1.26-.016,6.449,6.449,0,0,1-5.4-1.818,11.219,11.219,0,0,0-3.895-2.355,1.556,1.556,0,0,0-.869-.223c-1.846.375-2.867-.947-4-1.98-.469-.432-.775-1.006.242-1.307a.832.832,0,0,0,.584-1.049,15.319,15.319,0,0,0-2.393-5.018c-.352-.469-.947-.369-1.465-.369a2.286,2.286,0,0,1-1.791-1.027c-1.148-1.275-2.24-2.482-2.414-4.289-.021-.223-.4-.465-.658-.586-.49-.236-1.16-.469-.623-1.086s.928-1.834,2.066-1.312c.643.291,1.191.465,1.682.037,1.617-1.412,3.689-1.887,5.561-2.777a3.815,3.815,0,0,0,1.85-5.359c-.617-1.213-.443-1.512.953-1.533.564-.012,1.127.111,1.691.146,1.055.064,1.5-.441.975-1.311-.553-.9.254-1.361.359-2.029.2-1.291,1.064-.512,1.613-.469,1.7.131,2.5-.27,2.934-1.9.381-1.4,1.75-1.617,2.6-2.439.342-.326.574.242.764.484.748.971,1.561,1.771,2.936,1.629a.781.781,0,0,1,.885.633c.238,1.248,1,2.439.227,3.795-.4.711,0,1.264.791,1.449a5.513,5.513,0,0,0,1.418.23,6.769,6.769,0,0,1,5.543,2.773,5.492,5.492,0,0,0,4.939,2.219c3.287-.453,6.266.6,9.316,1.406a4.115,4.115,0,0,0,3.816-.494c1.344-.961,3.047-.648,4.58-.254a2.74,2.74,0,0,0,2.756-.711,15.356,15.356,0,0,1,1.807-1.291c.918-.6,1.719-1.17,1.213-2.525-.258-.7.152-1.09.943-.7a2.82,2.82,0,0,0,2.836-.342,21.249,21.249,0,0,0,4.342-2.793,3.928,3.928,0,0,1,3.115-.717,4.679,4.679,0,0,0,2.2-.137.884.884,0,0,0,.658-.738.776.776,0,0,0-.521-.828,13.393,13.393,0,0,1-3.035-1.791,1.811,1.811,0,0,0-1.523-.121,8.613,8.613,0,0,1-2.91.053c.971-.865.934-2.477,2.789-2.061,1.021.232,1.654-.965,2.734-1.061,1.186-.1,1.27-1.279,1.428-2.229.133-.758.717-1.176,1.17-1.7.744-.863,1-1.738.064-2.635.5-.658,1.434-.354,1.949-.932h4.465c2.539.99,3.684,2.93,3.932,5.574a3.326,3.326,0,0,0,2.229,2.566,9.134,9.134,0,0,1,4.146,2.984,2.325,2.325,0,0,0,3.158.684c.822-.373,1.959-1.121,2.529-.525.652.684-.258,1.744-.57,2.623-.146.412-.363.8-.494,1.213a1.672,1.672,0,0,1-1.723,1.285c-2.082.117-2.736.959-2.336,2.963.152.754-.311,1.223-.494,1.98-1.033-1.027-1.861-.658-2.621.186-.664.742-1.67,1.143-2.107,2.117-.242.549-.584.207-.844.033a1.709,1.709,0,0,0-2.666.621c-.828,1.244-2.377,1.775-3.094,3.162-.146.279-.773.311-1.186.453a4.418,4.418,0,0,0-1.986,1.449c-.391.469-.791.953-1.549.723.578-.928,1.49-1.656,1.533-2.852.01-.432.385-1.027-.416-1.107-.654-.068-1.439-.906-1.936.164-.516,1.1-1.6,1.586-2.377,2.4a2.091,2.091,0,0,1-1.574.406c-.26-.031-.527-.062-.633.326a1.083,1.083,0,0,0,.211,1.107,2.13,2.13,0,0,0,.7.58c.748.3,1.617.248,1.359,1.617-.137.717.764.406,1.176.148a3.835,3.835,0,0,1,3.721-.555c.273.117.664.111.643.518s-.379.584-.732.633c-.428.063-.875.016-1.307.078-.518.08-1.229-.074-1.17.844.016.258-.232.332-.428.422a1.938,1.938,0,0,0-.68,3.283c.375.438.813.854.775,1.465a2.282,2.282,0,0,0,1.322,2.461c.143.074.242.242.363.369-1.1.869-.115,1.391.295,2.051.164.252-.174.463-.389.59-.48.279-.986.527-1.5.795a1.02,1.02,0,0,0,1.107.412,2.267,2.267,0,0,1,.475,0c.686.094.969.4.6,1.049-.891,1.543-1.355,3.33-2.6,4.674a5.451,5.451,0,0,0-1.475,2.414c-.437,1.592-2.107,2.361-3.674,2.887a4.384,4.384,0,0,0-1.891,1.1,4.3,4.3,0,0,1-3.527,1.053,1.744,1.744,0,0,0-1.338.328c-1.16,1.006-2.656,1.307-4.025,1.844a1.36,1.36,0,0,1-.512.1C20884.418,19217.039,20883.7,19216.385,20882.873,19216.3Zm19.311-.875c-.037-.074-.074-.158-.111-.238-1.18-2.619-1.18-2.619,1.455-4.457a8.311,8.311,0,0,1,.078,4.637c-.131.357-.32.77-.785.785h-.021C20902.373,19216.154,20902.34,19215.717,20902.184,19215.428Zm-55.389-8.385a1.212,1.212,0,0,0-.332-.043,4.991,4.991,0,0,1-.779-.062,27.4,27.4,0,0,1-9.75-3.5c-.242-.158-.643-.252-.369-.658.258-.385.047-1.039.859-1.129a5.183,5.183,0,0,1,4.258,1.607,10.847,10.847,0,0,0,5.93,2.783c.395.068.984-.111.895.6-.045.354-.209.441-.406.441A1.723,1.723,0,0,1,20846.795,19207.043Zm72.459-7.959a3.048,3.048,0,0,0-.354,0c-.5.043-.311-.51-.363-.816a4.968,4.968,0,0,1-.1-1.148c.027-.359.813-.459.486-.918-.354-.494-.648.08-.965.223-.205.094-.332-.059-.395-.223a.59.59,0,0,1,.125-.721c.566-.457,1.154-.887,1.73-1.332,1.787,1.348,2.012,2.594.873,4.525a.844.844,0,0,1-.818.418C20919.4,19199.092,20919.326,19199.088,20919.254,19199.084Zm3.066-3.02c-.49-.543-.021-1.443.273-1.428.939.031,1.381-.822,2.178-.934a1.311,1.311,0,0,1,.264,0c.463-.047.764.016.705.449-.068.51-.121,1.117-.854,1.049a1.736,1.736,0,0,0-1.518.537c-.189.2-.414.525-.686.525A.5.5,0,0,1,20922.32,19196.064Zm4.748-1.143a.971.971,0,0,1-.152-1.582,3.721,3.721,0,0,0,.326-.7,6.525,6.525,0,0,0-2.361.291c-1.707,1.027-3.586.98-5.434,1.2.258-.227.348-.557.766-.738a4.75,4.75,0,0,0,2.061-1.527,1.68,1.68,0,0,1,1.84-.664,3.9,3.9,0,0,0,1.686-.031c.395-.08.791-.506,1.213.158.2.32.8-.049.9-.422.3-1.123,1.486-1.691,1.686-2.973-.057.975.486.9,1.023.785a6.1,6.1,0,0,0,3.941-4.785c.037-.564.059-1.133.121-1.691.133-1.176.555-1.434,1.725-1.07.295-.174.1-.363.01-.543s-.115-.316.1-.41c1.529,1.664,1.85,3.383.57,5-1.234,1.549-1.145,3.283-1.207,5.021a2.3,2.3,0,0,1-.5,1.434c-.227.295-.469.6-.816.189-.41-.479-.791-.115-1,.105-.627.676-1.518.549-2.26.838-.791.3-1.471-.32-2.377-.764a1.824,1.824,0,0,1-.459,2.34c-.324.268-.6.7-.992.7A.709.709,0,0,1,20927.068,19194.922Zm-7.672-.791.031.01s-.006.006-.01.008Zm0,0,.051-.006-.02.016Zm-7.615-1.27a.8.8,0,0,1,.063-1.07,18.837,18.837,0,0,0,.779-3.836c-.041-.707-.373-1.029-1.09-.939a1.831,1.831,0,0,1-1.381-.252c-.484-.354-.891-.617-.211-1.25a1.409,1.409,0,0,0-.18-2.25c-.643-.48-.516-.717-.062-1.006a8.122,8.122,0,0,0,2.2-2.035c.432-.58.859-.416,1.359-.105,1,.623,1.766.8,2.277-.686.32-.932,1.369-1.465,2.182-2.012.543-.369,1.07.453,2.008.674a3.663,3.663,0,0,0-2.613,2.551,4.42,4.42,0,0,1-2.389,2.129c-.975.521-1.139,1.092-.242,1.893a7.354,7.354,0,0,1,2.076,2.666,5.6,5.6,0,0,1-.437,4.77,1.136,1.136,0,0,1-.764.664c-.848.205-1.707.375-2.566.549a1.073,1.073,0,0,1-.2.021A.985.985,0,0,1,20911.781,19192.861Zm-36.2-14.277a23.576,23.576,0,0,1-5.049-1.365,4.88,4.88,0,0,0-2.514-.479c-.959.068-1.918.168-2.877.184a5.643,5.643,0,0,1-4.744-2.039,7.734,7.734,0,0,0-6.266-3.047c-.838.021-1.07-.164-.859-1.133a6.675,6.675,0,0,0-.816-4.174,1.537,1.537,0,0,0-1.549-.785,1.807,1.807,0,0,1-1.365-.326c-.375-.359-.934-.744-.891-1.234.047-.531.758-.479,1.186-.584a5.35,5.35,0,0,0,1.924-1.027c1.434-1.076,3.256-1.1,4.916-1.566a.4.4,0,0,1,.338.148c1.607,2.123,4.078,1.713,6.25,2.076,1.35.227,2.768-1.566,2.541-2.941-.264-1.592.143-2.055,1.691-1.645,1.766.469,3.721.648,4.58,2.773.352.885,1.275,1.012,2.145.6a4.65,4.65,0,0,1,4.168.205c1.3.6,2.588,1.25,3.916,1.793,2.814,1.16,5.313.084,7.705-1.27a4.511,4.511,0,0,1,4.463-.074c.412.258.211.516.105.779a8.009,8.009,0,0,1-1.3,1.793c-.654.838-.428,1.465.59,1.738a4.727,4.727,0,0,0,2.34.105,3.482,3.482,0,0,1,3.7,1.365,6.985,6.985,0,0,0-5.973,2.176,13.956,13.956,0,0,1-3.529,1.877c-.406.2-.76-.1-1.117-.227-1.635-.611-2.646.078-2.34,1.813.174.986-.307,1.229-.881,1.723a5.746,5.746,0,0,1-5.576,1.461,4.493,4.493,0,0,0-3.957.975,1.224,1.224,0,0,1-.77.352A.829.829,0,0,1,20875.58,19178.584Z" transform="translate(-19078.201 -18333.607)" stroke="rgba(0,0,0,0)" stroke-width="1" fill="url(#linear-gradient)"/>
  </g>
</svg>
