<?xml version="1.0" encoding="utf-8"?>
<!-- Generator: Adobe Illustrator 27.0.0, SVG Export Plug-In . SVG Version: 6.00 Build 0)  -->
<svg version="1.1" id="Layer_1" xmlns="http://www.w3.org/2000/svg" xmlns:xlink="http://www.w3.org/1999/xlink" x="0px" y="0px"
	 viewBox="0 0 77 77" style="enable-background:new 0 0 77 77;" xml:space="preserve">
<style type="text/css">
	.st0{fill:url(#Path_150_00000101794616079896859300000002321564460444446353_);}
</style>
<g id="Group_44" transform="translate(135.502 3495.457)">
	
		<linearGradient id="Path_150_00000044144979953437954820000013815611501082836133_" gradientUnits="userSpaceOnUse" x1="-394.5897" y1="-3071.3787" x2="-394.5897" y2="-3070.3787" gradientTransform="matrix(36.0212 0 0 -35.9821 14116.5781 -113953.5312)">
		<stop  offset="0" style="stop-color:#C50000"/>
		<stop  offset="1" style="stop-color:#630000"/>
	</linearGradient>
	<path id="Path_150" style="fill:url(#Path_150_00000044144979953437954820000013815611501082836133_);" d="M-80.1-3454.9l-2.6-1.5
		l0.5-0.5c3.3-3.1,4.1-8.1,2-12.1c-1.9-4.1-6.2-6.4-10.7-5.8c-4.4,0.5-8,3.7-9.1,8c-1.7,6.3,0.9,13.5-0.5,18.1
		c-0.4,1.8-1.8,3.2-3.6,3.4c-1.8,0.3-3.5-0.7-4.2-2.4c-0.8-1.6-0.5-3.6,0.8-4.8l0.5-0.5l1.5,2.6c0.2,0.4,0.7,0.6,1.1,0.5
		c0.4-0.1,0.8-0.4,0.8-0.9l1.5-10.4c0.1-0.6-0.3-1.1-0.9-1.2c-0.1,0-0.2,0-0.3,0l-10.4,1.5c-0.6,0.1-1,0.6-0.9,1.2
		c0,0.3,0.2,0.6,0.5,0.8l2.6,1.5l-0.5,0.5c-3.3,3.1-4.1,8.1-2,12.1c1.9,4.1,6.2,6.4,10.7,5.8c4.4-0.5,8-3.7,9-8
		c1.7-6.3-0.9-13.5,0.5-18.1c0.4-1.8,1.9-3.2,3.7-3.4c1.8-0.3,3.5,0.7,4.2,2.4c0.8,1.6,0.5,3.6-0.8,4.8l-0.5,0.5l-1.5-2.6
		c-0.2-0.4-0.7-0.6-1.1-0.5c-0.4,0.1-0.8,0.4-0.8,0.9l-1.5,10.4c-0.1,0.6,0.3,1.1,0.9,1.2c0.1,0,0.2,0,0.3,0l10.4-1.5
		c0.6-0.1,1-0.6,0.9-1.2C-79.6-3454.4-79.8-3454.7-80.1-3454.9L-80.1-3454.9z"/>
</g>
</svg>
